{
  "cod": "200",
  "message": 0.0996,
  "city": {
    "id": "6176823",
    "name": "Waterloo",
    "coord": {
      "lon": -80.5208,
      "lat": 43.4634
    },
    "country": "Canada",
    "population": 0
  },
  "cnt": 32,
  "list": [
    {
      "dt": 1414692000,
      "main": {
        "temp": 279.86,
        "temp_min": 279.86,
        "temp_max": 280.928,
        "pressure": 980.17,
        "sea_level": 1030.84,
        "grnd_level": 980.17,
        "humidity": 80,
        "temp_kf": -1.07
      },
      "weather": [
        {
          "id": 802,
          "main": "Clouds",
          "description": "scattered clouds",
          "icon": "03d"
        }
      ],
      "clouds": {
        "all": 44
      },
      "wind": {
        "speed": 2.66,
        "deg": 297.502
      },
      "sys": {
        "pod": "d"
      },
      "dt_txt": "2014-10-30 18:00:00"
    },
    {
      "dt": 1414702800,
      "main": {
        "temp": 279.64,
        "temp_min": 279.64,
        "temp_max": 280.655,
        "pressure": 979.25,
        "sea_level": 1029.8,
        "grnd_level": 979.25,
        "humidity": 75,
        "temp_kf": -1.01
      },
      "weather": [
        {
          "id": 804,
          "main": "Clouds",
          "description": "overcast clouds",
          "icon": "04d"
        }
      ],
      "clouds": {
        "all": 92
      },
      "wind": {
        "speed": 2.24,
        "deg": 272.001
      },
      "sys": {
        "pod": "d"
      },
      "dt_txt": "2014-10-30 21:00:00"
    },
    {
      "dt": 1414713600,
      "main": {
        "temp": 277.36,
        "temp_min": 277.36,
        "temp_max": 278.323,
        "pressure": 979.06,
        "sea_level": 1029.85,
        "grnd_level": 979.06,
        "humidity": 83,
        "temp_kf": -0.96
      },
      "weather": [
        {
          "id": 804,
          "main": "Clouds",
          "description": "overcast clouds",
          "icon": "04n"
        }
      ],
      "clouds": {
        "all": 88
      },
      "wind": {
        "speed": 1.87,
        "deg": 255.5
      },
      "sys": {
        "pod": "n"
      },
      "dt_txt": "2014-10-31 00:00:00"
    },
    {
      "dt": 1414724400,
      "main": {
        "temp": 275.46,
        "temp_min": 275.46,
        "temp_max": 276.369,
        "pressure": 978.35,
        "sea_level": 1029,
        "grnd_level": 978.35,
        "humidity": 89,
        "temp_kf": -0.91
      },
      "weather": [
        {
          "id": 803,
          "main": "Clouds",
          "description": "broken clouds",
          "icon": "04n"
        }
      ],
      "clouds": {
        "all": 80
      },
      "wind": {
        "speed": 1.4,
        "deg": 240.023
      },
      "sys": {
        "pod": "n"
      },
      "dt_txt": "2014-10-31 03:00:00"
    },
    {
      "dt": 1414735200,
      "main": {
        "temp": 274.98,
        "temp_min": 274.98,
        "temp_max": 275.833,
        "pressure": 976.7,
        "sea_level": 1027.47,
        "grnd_level": 976.7,
        "humidity": 93,
        "temp_kf": -0.85
      },
      "weather": [
        {
          "id": 804,
          "main": "Clouds",
          "description": "overcast clouds",
          "icon": "04n"
        }
      ],
      "clouds": {
        "all": 88
      },
      "wind": {
        "speed": 2.27,
        "deg": 201.001
      },
      "sys": {
        "pod": "n"
      },
      "dt_txt": "2014-10-31 06:00:00"
    },
    {
      "dt": 1414746000,
      "main": {
        "temp": 275.71,
        "temp_min": 275.71,
        "temp_max": 276.514,
        "pressure": 974.82,
        "sea_level": 1025.63,
        "grnd_level": 974.82,
        "humidity": 96,
        "temp_kf": -0.8
      },
      "weather": [
        {
          "id": 804,
          "main": "Clouds",
          "description": "overcast clouds",
          "icon": "04n"
        }
      ],
      "clouds": {
        "all": 92
      },
      "wind": {
        "speed": 3.51,
        "deg": 209.5
      },
      "sys": {
        "pod": "n"
      },
      "dt_txt": "2014-10-31 09:00:00"
    },
    {
      "dt": 1414756800,
      "main": {
        "temp": 276.68,
        "temp_min": 276.68,
        "temp_max": 277.423,
        "pressure": 973.77,
        "sea_level": 1024.56,
        "grnd_level": 973.77,
        "humidity": 99,
        "temp_kf": -0.75
      },
      "weather": [
        {
          "id": 500,
          "main": "Rain",
          "description": "light rain",
          "icon": "10d"
        }
      ],
      "clouds": {
        "all": 92
      },
      "wind": {
        "speed": 3.31,
        "deg": 242.5
      },
      "rain": {
        "3h": 1
      },
      "sys": {
        "pod": "d"
      },
      "dt_txt": "2014-10-31 12:00:00"
    },
    {
      "dt": 1414767600,
      "main": {
        "temp": 277.3,
        "temp_min": 277.3,
        "temp_max": 277.996,
        "pressure": 973.14,
        "sea_level": 1023.71,
        "grnd_level": 973.14,
        "humidity": 100,
        "temp_kf": -0.69
      },
      "weather": [
        {
          "id": 804,
          "main": "Clouds",
          "description": "overcast clouds",
          "icon": "04d"
        }
      ],
      "clouds": {
        "all": 92
      },
      "wind": {
        "speed": 3.37,
        "deg": 243.504
      },
      "rain": {
        "3h": 0
      },
      "sys": {
        "pod": "d"
      },
      "dt_txt": "2014-10-31 15:00:00"
    },
    {
      "dt": 1414778400,
      "main": {
        "temp": 278.01,
        "temp_min": 278.01,
        "temp_max": 278.646,
        "pressure": 971.72,
        "sea_level": 1021.99,
        "grnd_level": 971.72,
        "humidity": 98,
        "temp_kf": -0.64
      },
      "weather": [
        {
          "id": 500,
          "main": "Rain",
          "description": "light rain",
          "icon": "10d"
        }
      ],
      "clouds": {
        "all": 92
      },
      "wind": {
        "speed": 2.81,
        "deg": 248.507
      },
      "rain": {
        "3h": 1
      },
      "sys": {
        "pod": "d"
      },
      "dt_txt": "2014-10-31 18:00:00"
    },
    {
      "dt": 1414789200,
      "main": {
        "temp": 277.81,
        "temp_min": 277.81,
        "temp_max": 278.399,
        "pressure": 971.1,
        "sea_level": 1021.64,
        "grnd_level": 971.1,
        "humidity": 100,
        "temp_kf": -0.59
      },
      "weather": [
        {
          "id": 804,
          "main": "Clouds",
          "description": "overcast clouds",
          "icon": "04d"
        }
      ],
      "clouds": {
        "all": 92
      },
      "wind": {
        "speed": 2.33,
        "deg": 340.51
      },
      "rain": {
        "3h": 0
      },
      "sys": {
        "pod": "d"
      },
      "dt_txt": "2014-10-31 21:00:00"
    },
    {
      "dt": 1414800000,
      "main": {
        "temp": 276,
        "temp_min": 276,
        "temp_max": 276.529,
        "pressure": 972.27,
        "sea_level": 1022.96,
        "grnd_level": 972.27,
        "humidity": 100,
        "temp_kf": -0.53
      },
      "weather": [
        {
          "id": 500,
          "main": "Rain",
          "description": "light rain",
          "icon": "10n"
        }
      ],
      "clouds": {
        "all": 92
      },
      "wind": {
        "speed": 4.74,
        "deg": 6.01038
      },
      "rain": {
        "3h": 3
      },
      "sys": {
        "pod": "n"
      },
      "dt_txt": "2014-11-01 00:00:00"
    },
    {
      "dt": 1414810800,
      "main": {
        "temp": 274.93,
        "temp_min": 274.93,
        "temp_max": 275.412,
        "pressure": 972.51,
        "sea_level": 1023.53,
        "grnd_level": 972.51,
        "humidity": 100,
        "temp_kf": -0.48
      },
      "weather": [
        {
          "id": 500,
          "main": "Rain",
          "description": "light rain",
          "icon": "10n"
        }
      ],
      "clouds": {
        "all": 92
      },
      "wind": {
        "speed": 6.16,
        "deg": 7.00333
      },
      "snow": {
        "3h": 0.25
      },
      "rain": {
        "3h": 3
      },
      "sys": {
        "pod": "n"
      },
      "dt_txt": "2014-11-01 03:00:00"
    },
    {
      "dt": 1414821600,
      "main": {
        "temp": 274.21,
        "temp_min": 274.21,
        "temp_max": 274.642,
        "pressure": 972.99,
        "sea_level": 1024.06,
        "grnd_level": 972.99,
        "humidity": 100,
        "temp_kf": -0.43
      },
      "weather": [
        {
          "id": 500,
          "main": "Rain",
          "description": "light rain",
          "icon": "10n"
        }
      ],
      "clouds": {
        "all": 92
      },
      "wind": {
        "speed": 6.91,
        "deg": 16.0012
      },
      "snow": {
        "3h": 3
      },
      "rain": {
        "3h": 1
      },
      "sys": {
        "pod": "n"
      },
      "dt_txt": "2014-11-01 06:00:00"
    },
    {
      "dt": 1414832400,
      "main": {
        "temp": 273.9,
        "temp_min": 273.9,
        "temp_max": 274.276,
        "pressure": 974.25,
        "sea_level": 1025.22,
        "grnd_level": 974.25,
        "humidity": 94,
        "temp_kf": -0.37
      },
      "weather": [
        {
          "id": 600,
          "main": "Snow",
          "description": "light snow",
          "icon": "13n"
        }
      ],
      "clouds": {
        "all": 80
      },
      "wind": {
        "speed": 7.81,
        "deg": 22.5002
      },
      "snow": {
        "3h": 1.25
      },
      "rain": {
        "3h": 0
      },
      "sys": {
        "pod": "n"
      },
      "dt_txt": "2014-11-01 09:00:00"
    },
    {
      "dt": 1414843200,
      "main": {
        "temp": 273.73,
        "temp_min": 273.73,
        "temp_max": 274.047,
        "pressure": 976.91,
        "sea_level": 1028.3,
        "grnd_level": 976.91,
        "humidity": 96,
        "temp_kf": -0.32
      },
      "weather": [
        {
          "id": 500,
          "main": "Rain",
          "description": "light rain",
          "icon": "10d"
        }
      ],
      "clouds": {
        "all": 88
      },
      "wind": {
        "speed": 7.92,
        "deg": 25.5043
      },
      "snow": {
        "3h": 0.75
      },
      "rain": {
        "3h": 1
      },
      "sys": {
        "pod": "d"
      },
      "dt_txt": "2014-11-01 12:00:00"
    },
    {
      "dt": 1414854000,
      "main": {
        "temp": 274.4,
        "temp_min": 274.4,
        "temp_max": 274.667,
        "pressure": 980.16,
        "sea_level": 1031.46,
        "grnd_level": 980.16,
        "humidity": 90,
        "temp_kf": -0.27
      },
      "weather": [
        {
          "id": 600,
          "main": "Snow",
          "description": "light snow",
          "icon": "13d"
        }
      ],
      "clouds": {
        "all": 92
      },
      "wind": {
        "speed": 8.27,
        "deg": 29.0001
      },
      "snow": {
        "3h": 0.75
      },
      "rain": {
        "3h": 0
      },
      "sys": {
        "pod": "d"
      },
      "dt_txt": "2014-11-01 15:00:00"
    },
    {
      "dt": 1414864800,
      "main": {
        "temp": 276.05,
        "temp_min": 276.05,
        "temp_max": 276.267,
        "pressure": 981.05,
        "sea_level": 1032.25,
        "grnd_level": 981.05,
        "humidity": 80,
        "temp_kf": -0.21
      },
      "weather": [
        {
          "id": 802,
          "main": "Clouds",
          "description": "scattered clouds",
          "icon": "03d"
        }
      ],
      "clouds": {
        "all": 44
      },
      "wind": {
        "speed": 7.91,
        "deg": 27.0004
      },
      "snow": {
        "3h": 0
      },
      "rain": {
        "3h": 0
      },
      "sys": {
        "pod": "d"
      },
      "dt_txt": "2014-11-01 18:00:00"
    },
    {
      "dt": 1414875600,
      "main": {
        "temp": 275.83,
        "temp_min": 275.83,
        "temp_max": 275.991,
        "pressure": 981.62,
        "sea_level": 1033.04,
        "grnd_level": 981.62,
        "humidity": 75,
        "temp_kf": -0.16
      },
      "weather": [
        {
          "id": 800,
          "main": "Clear",
          "description": "sky is clear",
          "icon": "01d"
        }
      ],
      "clouds": {
        "all": 0
      },
      "wind": {
        "speed": 7.31,
        "deg": 19.0011
      },
      "snow": {
        "3h": 0
      },
      "rain": {
        "3h": 0
      },
      "sys": {
        "pod": "d"
      },
      "dt_txt": "2014-11-01 21:00:00"
    },
    {
      "dt": 1414886400,
      "main": {
        "temp": 273.66,
        "temp_min": 273.66,
        "temp_max": 273.765,
        "pressure": 983.58,
        "sea_level": 1035.16,
        "grnd_level": 983.58,
        "humidity": 76,
        "temp_kf": -0.11
      },
      "weather": [
        {
          "id": 800,
          "main": "Clear",
          "description": "sky is clear",
          "icon": "01n"
        }
      ],
      "clouds": {
        "all": 0
      },
      "wind": {
        "speed": 6.59,
        "deg": 17.0023
      },
      "snow": {
        "3h": 0
      },
      "rain": {
        "3h": 0
      },
      "sys": {
        "pod": "n"
      },
      "dt_txt": "2014-11-02 00:00:00"
    },
    {
      "dt": 1414897200,
      "main": {
        "temp": 272.36,
        "temp_min": 272.36,
        "temp_max": 272.413,
        "pressure": 984.84,
        "sea_level": 1036.65,
        "grnd_level": 984.84,
        "humidity": 76,
        "temp_kf": -0.05
      },
      "weather": [
        {
          "id": 800,
          "main": "Clear",
          "description": "sky is clear",
          "icon": "01n"
        }
      ],
      "clouds": {
        "all": 0
      },
      "wind": {
        "speed": 5.56,
        "deg": 19.5099
      },
      "snow": {
        "3h": 0
      },
      "rain": {
        "3h": 0
      },
      "sys": {
        "pod": "n"
      },
      "dt_txt": "2014-11-02 03:00:00"
    },
    {
      "dt": 1414908000,
      "main": {
        "temp": 271.079,
        "temp_min": 271.079,
        "temp_max": 271.079,
        "pressure": 985.17,
        "sea_level": 1037.38,
        "grnd_level": 985.17,
        "humidity": 78
      },
      "weather": [
        {
          "id": 800,
          "main": "Clear",
          "description": "sky is clear",
          "icon": "01n"
        }
      ],
      "clouds": {
        "all": 0
      },
      "wind": {
        "speed": 5.02,
        "deg": 11.0007
      },
      "snow": {
        "3h": 0
      },
      "rain": {
        "3h": 0
      },
      "sys": {
        "pod": "n"
      },
      "dt_txt": "2014-11-02 06:00:00"
    },
    {
      "dt": 1414918800,
      "main": {
        "temp": 270.167,
        "temp_min": 270.167,
        "temp_max": 270.167,
        "pressure": 986.09,
        "sea_level": 1038.4,
        "grnd_level": 986.09,
        "humidity": 80
      },
      "weather": [
        {
          "id": 800,
          "main": "Clear",
          "description": "sky is clear",
          "icon": "01n"
        }
      ],
      "clouds": {
        "all": 0
      },
      "wind": {
        "speed": 4.92,
        "deg": 10.0016
      },
      "snow": {
        "3h": 0
      },
      "rain": {
        "3h": 0
      },
      "sys": {
        "pod": "n"
      },
      "dt_txt": "2014-11-02 09:00:00"
    },
    {
      "dt": 1414929600,
      "main": {
        "temp": 269.346,
        "temp_min": 269.346,
        "temp_max": 269.346,
        "pressure": 987.91,
        "sea_level": 1040.55,
        "grnd_level": 987.91,
        "humidity": 79
      },
      "weather": [
        {
          "id": 800,
          "main": "Clear",
          "description": "sky is clear",
          "icon": "01d"
        }
      ],
      "clouds": {
        "all": 0
      },
      "wind": {
        "speed": 5,
        "deg": 9.00037
      },
      "snow": {
        "3h": 0
      },
      "rain": {
        "3h": 0
      },
      "sys": {
        "pod": "d"
      },
      "dt_txt": "2014-11-02 12:00:00"
    },
    {
      "dt": 1414940400,
      "main": {
        "temp": 273.579,
        "temp_min": 273.579,
        "temp_max": 273.579,
        "pressure": 989.41,
        "sea_level": 1041.81,
        "grnd_level": 989.41,
        "humidity": 70
      },
      "weather": [
        {
          "id": 800,
          "main": "Clear",
          "description": "sky is clear",
          "icon": "01d"
        }
      ],
      "clouds": {
        "all": 0
      },
      "wind": {
        "speed": 5.91,
        "deg": 12.0038
      },
      "snow": {
        "3h": 0
      },
      "rain": {
        "3h": 0
      },
      "sys": {
        "pod": "d"
      },
      "dt_txt": "2014-11-02 15:00:00"
    },
    {
      "dt": 1414951200,
      "main": {
        "temp": 276.222,
        "temp_min": 276.222,
        "temp_max": 276.222,
        "pressure": 989.19,
        "sea_level": 1041.1,
        "grnd_level": 989.19,
        "humidity": 60
      },
      "weather": [
        {
          "id": 800,
          "main": "Clear",
          "description": "sky is clear",
          "icon": "01d"
        }
      ],
      "clouds": {
        "all": 0
      },
      "wind": {
        "speed": 5.87,
        "deg": 3.50336
      },
      "snow": {
        "3h": 0
      },
      "rain": {
        "3h": 0
      },
      "sys": {
        "pod": "d"
      },
      "dt_txt": "2014-11-02 18:00:00"
    },
    {
      "dt": 1414962000,
      "main": {
        "temp": 275.447,
        "temp_min": 275.447,
        "temp_max": 275.447,
        "pressure": 989.98,
        "sea_level": 1041.57,
        "grnd_level": 989.98,
        "humidity": 62
      },
      "weather": [
        {
          "id": 800,
          "main": "Clear",
          "description": "sky is clear",
          "icon": "01d"
        }
      ],
      "clouds": {
        "all": 0
      },
      "wind": {
        "speed": 5.26,
        "deg": 356.507
      },
      "snow": {
        "3h": 0
      },
      "rain": {
        "3h": 0
      },
      "sys": {
        "pod": "d"
      },
      "dt_txt": "2014-11-02 21:00:00"
    },
    {
      "dt": 1414972800,
      "main": {
        "temp": 270.947,
        "temp_min": 270.947,
        "temp_max": 270.947,
        "pressure": 991.18,
        "sea_level": 1043.23,
        "grnd_level": 991.18,
        "humidity": 79
      },
      "weather": [
        {
          "id": 800,
          "main": "Clear",
          "description": "sky is clear",
          "icon": "01n"
        }
      ],
      "clouds": {
        "all": 0
      },
      "wind": {
        "speed": 3.51,
        "deg": 350.002
      },
      "snow": {
        "3h": 0
      },
      "rain": {
        "3h": 0
      },
      "sys": {
        "pod": "n"
      },
      "dt_txt": "2014-11-03 00:00:00"
    },
    {
      "dt": 1414983600,
      "main": {
        "temp": 268.093,
        "temp_min": 268.093,
        "temp_max": 268.093,
        "pressure": 992.06,
        "sea_level": 1044.34,
        "grnd_level": 992.06,
        "humidity": 83
      },
      "weather": [
        {
          "id": 800,
          "main": "Clear",
          "description": "sky is clear",
          "icon": "01n"
        }
      ],
      "clouds": {
        "all": 0
      },
      "wind": {
        "speed": 2.51,
        "deg": 347.501
      },
      "snow": {
        "3h": 0
      },
      "rain": {
        "3h": 0
      },
      "sys": {
        "pod": "n"
      },
      "dt_txt": "2014-11-03 03:00:00"
    },
    {
      "dt": 1414994400,
      "main": {
        "temp": 265.53,
        "temp_min": 265.53,
        "temp_max": 265.53,
        "pressure": 992.55,
        "sea_level": 1045.22,
        "grnd_level": 992.55,
        "humidity": 78
      },
      "weather": [
        {
          "id": 800,
          "main": "Clear",
          "description": "sky is clear",
          "icon": "02n"
        }
      ],
      "clouds": {
        "all": 8
      },
      "wind": {
        "speed": 1.33,
        "deg": 350.004
      },
      "snow": {
        "3h": 0
      },
      "rain": {
        "3h": 0
      },
      "sys": {
        "pod": "n"
      },
      "dt_txt": "2014-11-03 06:00:00"
    },
    {
      "dt": 1415005200,
      "main": {
        "temp": 264.898,
        "temp_min": 264.898,
        "temp_max": 264.898,
        "pressure": 993.17,
        "sea_level": 1045.84,
        "grnd_level": 993.17,
        "humidity": 73
      },
      "weather": [
        {
          "id": 800,
          "main": "Clear",
          "description": "sky is clear",
          "icon": "01n"
        }
      ],
      "clouds": {
        "all": 0
      },
      "wind": {
        "speed": 1.42,
        "deg": 335.001
      },
      "snow": {
        "3h": 0
      },
      "rain": {
        "3h": 0
      },
      "sys": {
        "pod": "n"
      },
      "dt_txt": "2014-11-03 09:00:00"
    },
    {
      "dt": 1415016000,
      "main": {
        "temp": 264.377,
        "temp_min": 264.377,
        "temp_max": 264.377,
        "pressure": 994.39,
        "sea_level": 1047.14,
        "grnd_level": 994.39,
        "humidity": 76
      },
      "weather": [
        {
          "id": 800,
          "main": "Clear",
          "description": "sky is clear",
          "icon": "01n"
        }
      ],
      "clouds": {
        "all": 0
      },
      "wind": {
        "speed": 1.26,
        "deg": 281.003
      },
      "snow": {
        "3h": 0
      },
      "rain": {
        "3h": 0
      },
      "sys": {
        "pod": "n"
      },
      "dt_txt": "2014-11-03 12:00:00"
    },
    {
      "dt": 1415048400,
      "main": {
        "temp": 278.217,
        "temp_min": 278.217,
        "temp_max": 278.217,
        "pressure": 993.01,
        "sea_level": 1044.57,
        "grnd_level": 993.01,
        "humidity": 60
      },
      "weather": [
        {
          "id": 802,
          "main": "Clouds",
          "description": "scattered clouds",
          "icon": "03d"
        }
      ],
      "clouds": {
        "all": 36
      },
      "wind": {
        "speed": 1.97,
        "deg": 194.501
      },
      "snow": {
        "3h": 0
      },
      "rain": {
        "3h": 0
      },
      "sys": {
        "pod": "d"
      },
      "dt_txt": "2014-11-03 21:00:00"
    }
  ]
}